{
  "entityType" : "WIDGET_TYPE",
  "entity" : {
    "fqn" : "5giotlead_vian_sandbox.rwd_test",
    "name" : "rwd test",
    "deprecated" : false,
    "image" : null,
    "description" : null,
    "descriptor" : {
      "type" : "static",
      "sizeX" : 7.5,
      "sizeY" : 3,
      "resources" : [ ],
      "templateHtml" : "<div class=\"container\">\n    <div class=\"wrap box1\">\n        Home\n    </div>\n    <div class=\"wrap box2\">\n        About\n    </div>\n</div>\n\n<mat-list>\n  <mat-list-item>Item 1</mat-list-item>\n  <mat-divider></mat-divider>\n  <mat-list-item>Item 2</mat-list-item>\n  <mat-divider></mat-divider>\n</mat-list>",
      "templateCss" : ".container{\n    display: flex;\n    flex-direction: row;\n}\n.wrap{\n    padding: 12px;\n    width: 50%;\n}\n.box1{\n    background: #9FC49F;\n}\n.box2{\n    background: #7EA8C4; /* #97AEC4 */\n}\n\n@media(max-width: 393px){\n    .container{\n        flex-direction: column;\n    }\n    .wrap{\n        width: 100%;\n    }\n}",
      "controllerScript" : "self.onInit = function() {\n    \n}\n\nself.onDestroy = function() {\n}\n",
      "settingsSchema" : "",
      "dataKeySettingsSchema" : "",
      "settingsDirective" : "tb-html-card-widget-settings",
      "defaultConfig" : "{\"datasources\":[{\"type\":\"static\",\"name\":\"function\",\"dataKeys\":[{\"name\":\"f(x)\",\"type\":\"function\",\"label\":\"Random\",\"color\":\"#2196f3\",\"settings\":{},\"_hash\":0.15479322438769105,\"funcBody\":\"var value = prevValue + Math.random() * 100 - 50;\\nvar multiplier = Math.pow(10, 2 || 0);\\nvar value = Math.round(value * multiplier) / multiplier;\\nif (value < -1000) {\\n\\tvalue = -1000;\\n} else if (value > 1000) {\\n\\tvalue = 1000;\\n}\\nreturn value;\"}]}],\"timewindow\":{\"realtime\":{\"timewindowMs\":60000}},\"showTitle\":false,\"backgroundColor\":\"rgb(255, 255, 255)\",\"color\":\"rgba(0, 0, 0, 0.87)\",\"padding\":\"8px\",\"settings\":{\"cardHtml\":\"<div class='card'>HTML code here</div>\",\"cardCss\":\".card {\\n    font-weight: bold;\\n    font-size: 32px;\\n    color: #999;\\n    width: 100%;\\n    height: 100%;\\n    display: flex;\\n    align-items: center;\\n    justify-content: center;\\n}\"},\"title\":\"rwd test\",\"dropShadow\":true}"
    },
    "externalId" : {
      "entityType" : "WIDGET_TYPE",
      "id" : "9a0cdb30-4617-11ee-8d08-d33b5572acdc"
    },
    "id" : {
      "entityType" : "WIDGET_TYPE",
      "id" : "9a0cdb30-4617-11ee-8d08-d33b5572acdc"
    },
    "tags" : null
  },
  "relations" : [ ],
  "attributes" : {
    "SERVER_SCOPE" : [ ]
  }
}