{
  "entityType" : "WIDGET_TYPE",
  "entity" : {
    "fqn" : "5giotlead_vian_sandbox.update_dashboard_state",
    "name" : "Update dashboard state",
    "deprecated" : false,
    "image" : null,
    "description" : null,
    "descriptor" : {
      "type" : "static",
      "sizeX" : 7.5,
      "sizeY" : 3,
      "resources" : [ ],
      "templateHtml" : "<div class=\"box\">\n    <button mat-raised-button color=\"primary\" class=\"c-btn\"\n        (click)=\"updateState('home')\">Click for linking to home</button>\n</div>",
      "templateCss" : "",
      "controllerScript" : "self.onInit = function() {\n    self.ctx.$scope.updateState = updateDashboardState;\n}\n\nfunction updateDashboardState(stateId) {\n    var params = self.ctx.stateController.getStateParams();\n    // Line below opens new state\n    self.ctx.stateController.openState(stateId,\n        params, false);\n    // Line below updates state\n    // widgetContext.stateController.updateState(stateId,params, false);\n}\n\nself.actionSources = function() {\n    return {\n        'elementClick': {\n            name: 'widget-action.element-click',\n            multiple: true\n        }\n    };\n}\n\nself.onDestroy = function() {}",
      "settingsSchema" : "",
      "dataKeySettingsSchema" : "",
      "settingsDirective" : "tb-html-card-widget-settings",
      "defaultConfig" : "{\"datasources\":[{\"type\":\"static\",\"name\":\"function\",\"dataKeys\":[{\"name\":\"f(x)\",\"type\":\"function\",\"label\":\"Random\",\"color\":\"#2196f3\",\"settings\":{},\"_hash\":0.15479322438769105,\"funcBody\":\"var value = prevValue + Math.random() * 100 - 50;\\nvar multiplier = Math.pow(10, 2 || 0);\\nvar value = Math.round(value * multiplier) / multiplier;\\nif (value < -1000) {\\n\\tvalue = -1000;\\n} else if (value > 1000) {\\n\\tvalue = 1000;\\n}\\nreturn value;\"}]}],\"timewindow\":{\"realtime\":{\"timewindowMs\":60000}},\"showTitle\":false,\"backgroundColor\":\"rgb(255, 255, 255)\",\"color\":\"rgba(0, 0, 0, 0.87)\",\"padding\":\"8px\",\"settings\":{\"cardHtml\":\"<div class='card'>HTML code here</div>\",\"cardCss\":\".card {\\n    font-weight: bold;\\n    font-size: 32px;\\n    color: #999;\\n    width: 100%;\\n    height: 100%;\\n    display: flex;\\n    align-items: center;\\n    justify-content: center;\\n}\"},\"title\":\"Update dashboard state\",\"dropShadow\":true}"
    },
    "externalId" : {
      "entityType" : "WIDGET_TYPE",
      "id" : "9acf67e0-4617-11ee-8d08-d33b5572acdc"
    },
    "id" : {
      "entityType" : "WIDGET_TYPE",
      "id" : "9acf67e0-4617-11ee-8d08-d33b5572acdc"
    },
    "tags" : null
  },
  "relations" : [ ],
  "attributes" : {
    "SERVER_SCOPE" : [ ]
  }
}