{
  "entityType" : "WIDGET_TYPE",
  "entity" : {
    "fqn" : "block_widget_display_online",
    "name" : "Block Widget Display_online",
    "deprecated" : false,
    "image" : null,
    "description" : null,
    "descriptor" : {
      "type" : "latest",
      "sizeX" : 7.5,
      "sizeY" : 3,
      "resources" : [ ],
      "templateHtml" : "<img *ngIf=\"!signageStyle || styleId == 'default'\"\r\n    src=\"/api/signage/resource/all/default.jpg\"\r\n    style=\"width: 100%; height: 100%;\" />\r\n\r\n<div *ngIf=\"signageStyle && blocksHeight\" class=\"container\">\r\n    <div class=\"marquee-wrap\" [style.height]=\" (100-totalHeight) +'%' \">\r\n        <div\r\n            *ngFor=\"let block of signageStyle.signageBlocks, index as num\">\r\n            <!-- Text Start -->\r\n            <div *ngIf=\"signageStyle.template.name === '直式三層'\"\r\n                class=\"text-box\">\r\n                <div class=\"text\"\r\n                    (animationiteration)=\"nextText(block)\">\r\n                    {{block.text[fileIndexs[block.name]]}}\r\n                </div>\r\n            </div>\r\n            <!-- Text End -->\r\n        </div>\r\n    </div>\r\n    <div [style.height]=\" totalHeight+'%' \">\r\n        <div *ngFor=\"let block of signageStyle.signageBlocks, index as num\"\r\n            [ngStyle]=\"{'height': blocksHeight[signageStyle.template.name][num]}\"\r\n            class=\"blocks-wrap\">\r\n            <div style=\"width: 100%; height: 100%;\"\r\n                *ngIf=\"signageStyle.template.blocksType[block.name] == 'media'\">\r\n                <img *ngIf=\"playing[block.name]?.mimeType !== 'mp4' && playing[block.name]?.mimeType !== 'mov'\"\r\n                    [src]=\"'/api/signage/resource/all/' + playing[block.name].id + '.' +  playing[block.name]?.mimeType\"\r\n                    (load)=\"imageLoaded(block)\" />\r\n                <video\r\n                    *ngIf=\"playing[block.name]?.mimeType == 'mp4' || playing[block.name]?.mimeType == 'mov'\"\r\n                    [src]=\"'/api/signage/resource/all/' + playing[block.name].id + '.' +  playing[block.name]?.mimeType\"\r\n                    autoplay\r\n                    (loadedmetadata)=\"videoDomLoaded($event, block)\"\r\n                    (ended)=\"videoEnded(block)\"></video>\r\n            </div>\r\n        </div>\r\n    </div>\r\n</div>",
      "templateCss" : "@import url('https://fonts.googleapis.com/css2?family=Noto+Sans+TC&display=swap');\n\n#container tb-markdown-widget {\n    height: 100%;\n    display: block;\n}\n\n#container tb-markdown-widget .tb-markdown-view {\n    height: 100%;\n    overflow: auto;\n}\n\ndiv {\n    margin: 0;\n    padding: 0;\n}\n\nimg {\n    width: 100%;\n    height: 100%;\n    object-fit: fill;\n    vertical-align: middle;\n}\n\nvideo {\n    width: 100%;\n    height: 100%;\n    object-fit: fill;\n    vertical-align: middle;\n}\n\n\n/* The animation */\n@keyframes marquee {\n    0% {\n        transform: translateX(100%);\n    }\n\n    100% {\n        transform: translateX(-100%);\n    }\n}\n\n.container {\n    width: 100%;\n    height: 100%;\n}\n\n.text-box {\n    width: 100%;\n    display: flex;\n    align-items: center;\n    justify-content: center;\n}\n\n.text {\n    font-size: 24px;\n    width: 100%;\n    font-weight: bold;\n    font-family: 'Noto Sans TC', sans-serif;\n    color: #000000;\n    animation: marquee 15s linear infinite;\n}",
      "controllerScript" : "var ds_url = \"\";\n\nself.onInit = function() {\n    let blocksHeight = {\n        '直式全版': ['100%'],\n        '直式兩層': ['50%', '50%'],\n        '直式三層': ['0', '50%', '50%']\n    };\n    self.ctx.$scope.blocksHeight = blocksHeight;\n    self.ctx.$scope.fileIndexs = {};\n    self.ctx.$scope.playing = {};\n    self.ctx.$scope.nextText = nextText;\n    self.ctx.$scope.imageLoaded = imageLoaded;\n    self.ctx.$scope.videoDomLoaded = videoDomLoaded;\n    self.ctx.$scope.videoEnded = videoEnded;\n    self.ctx.$scope.totalHeight = 100;\n}\n\nfunction nextText(block) {\n    let textAmount = block.text.length;\n    let fileIndex = self.ctx.$scope.fileIndexs[block.name] +\n        1;\n    if (fileIndex > textAmount - 1) {\n        fileIndex = 0;\n    }\n    self.ctx.$scope.fileIndexs[block.name] = fileIndex;\n    self.ctx.detectChanges();\n}\n\nfunction nextFile(block) {\n    let filesAmount = block.files.length;\n    let fileIndex = self.ctx.$scope.fileIndexs[block.name] +\n        1;\n    if (fileIndex > filesAmount - 1) {\n        fileIndex = 0;\n    }\n    self.ctx.$scope.fileIndexs[block.name] = fileIndex;\n    self.ctx.$scope.playing[block.name] = block.files[\n        fileIndex];\n    self.ctx.detectChanges();\n}\n\nfunction imageLoaded(block) {\n    setTimeout(\n        () => nextFile(block),\n        block.interval * 1000\n    );\n}\n\nfunction videoDomLoaded($event, block) {\n    if (block.files.length == 1) {\n        $event.target.loop = true;\n    }\n}\n\nfunction videoEnded(block) {\n    if (block.files.length > 1) {\n        nextFile(block);\n    }\n}\n\nself.onDataUpdated = function() {\n    var styleId = \"default\";\n    var styleData = self.ctx.data.find(data => data\n        .dataKey.name == 'Style');\n    if (styleData) {\n        styleId = styleData.data[0][1];\n    }\n    self.ctx.$scope.styleId = styleId;\n    if (styleId) {\n        if (styleId != \"default\") {\n            getStyle(styleId);\n        } else {\n            self.ctx.detectChanges();\n        }\n    }\n\n    function getStyle(styleId) {\n        self.ctx.http.get(\n            `${ds_url}/api/signage/style/${styleId}`\n        ).subscribe(\n            res => {\n                self.ctx.$scope.signageStyle = res;\n                res.signageBlocks.forEach(\n                    block => {\n                        self.ctx.$scope\n                            .fileIndexs[block\n                                .name] = 0;\n                        self.ctx.$scope.playing[\n                                block.name] =\n                            block.files[\n                                self.ctx.$scope\n                                .fileIndexs[\n                                    block.name]\n                            ];\n                    }\n                );\n                self.ctx.$scope.totalHeight = (self.ctx.$scope.signageStyle.template.name === '直式三層') ? 95 : 100;\n                self.ctx.detectChanges();\n            }\n        );\n    }\n}\n\nfunction changeFile(blockIndex) {\n    self.ctx.$scope.signageStyle.signageBlocks[blockIndex];\n    var fileIndex = self.ctx.$scope.fileIndexs[blockIndex];\n    self.ctx.$scope.playing[blockIndex] = self.ctx.$scope\n        .signageStyle.blocksType[blockIndex].files[\n            fileIndex];\n    self.ctx.detectChanges();\n}\n\n\nself.onDestroy = function() {}",
      "settingsSchema" : "{}",
      "dataKeySettingsSchema" : "{}\n",
      "defaultConfig" : "{\"datasources\":[{\"type\":\"function\",\"name\":\"function\",\"dataKeys\":[{\"name\":\"f(x)\",\"type\":\"function\",\"label\":\"Random\",\"color\":\"#2196f3\",\"settings\":{},\"_hash\":0.15479322438769105,\"funcBody\":\"var value = prevValue + Math.random() * 100 - 50;\\nvar multiplier = Math.pow(10, 2 || 0);\\nvar value = Math.round(value * multiplier) / multiplier;\\nif (value < -1000) {\\n\\tvalue = -1000;\\n} else if (value > 1000) {\\n\\tvalue = 1000;\\n}\\nreturn value;\"}]}],\"timewindow\":{\"realtime\":{\"timewindowMs\":60000}},\"showTitle\":true,\"backgroundColor\":\"#fff\",\"color\":\"rgba(0, 0, 0, 0.87)\",\"padding\":\"8px\",\"settings\":{},\"title\":\"Attributes card\"}"
    },
    "externalId" : {
      "entityType" : "WIDGET_TYPE",
      "id" : "9d4e4010-ba82-11ee-9ba1-dd1d2bdb0b5d"
    },
    "id" : {
      "entityType" : "WIDGET_TYPE",
      "id" : "9d4e4010-ba82-11ee-9ba1-dd1d2bdb0b5d"
    },
    "tags" : null
  },
  "relations" : [ ],
  "attributes" : {
    "SERVER_SCOPE" : [ ]
  }
}