{
  "entityType" : "WIDGET_TYPE",
  "entity" : {
    "fqn" : "customized_button.demo_for_data_download",
    "name" : "Demo for data download staging",
    "deprecated" : false,
    "image" : null,
    "description" : null,
    "descriptor" : {
      "type" : "timeseries",
      "sizeX" : 8,
      "sizeY" : 5,
      "resources" : [ ],
      "templateHtml" : "<button mat-raised-button color=\"primary\"\n    class=\"download-btn\" (click)=\"downloadF()\"><a\n        class=\"link\" [href]=\"file\"\n        [download]=\"fileName\">Download</a></button>",
      "templateCss" : ".legend {\n    font-size: 13px;\n    line-height: 10px;\n}\n\n.legend table { \n    border-spacing: 0px;\n    border-collapse: separate;\n}\n\n.mouse-events .flot-overlay {\n    cursor: crosshair; \n}\n\n.download-btn{\n    position: absolute;\n    top: 0;\n    left: 0;\n}\n\n.link{\n    color: #ffffff;\n}\n",
      "controllerScript" : "self.onInit = function() {\n    self.ctx.$scope.downloadF = downloadF;\n}\n\nfunction downloadF() {\n    //藉型別陣列建構的 blob 來建立 URL\n    let fileName = \"fileName.csv\";\n    const str = getRandomData();\n    let blob = new Blob([str], {\n        type: \"application/octet-stream\",\n    });\n    self.ctx.$scope.file = self.ctx.sanitizer\n        .bypassSecurityTrustResourceUrl(URL.createObjectURL(\n            blob));\n    self.ctx.$scope.fileName = fileName;\n}\n\n\nfunction getRandomData() {\n    let dataRes = self.ctx.data[0];\n    let data = dataRes.data;\n    let title = self.ctx.data[0].dataKey.label;\n    let str = `time, ${title}\\r\\n`; //let str = \"\"; const title=\"time, data\\r\\n\";\n\n    data.forEach(item => {\n        str += item[0] + ',' + item[1];\n        str += '\\r\\n';\n    })\n\n    return str;\n    //console.log(str);\n}\n\n\nself.onDataUpdated = function() {\n    //self.ctx.flot.update();\n}\n\n\nself.onLatestDataUpdated = function() {\n    //self.ctx.flot.latestDataUpdate();\n}\n\nself.onResize = function() {\n    //self.ctx.flot.resize();\n}\n\nself.onEditModeChanged = function() {\n    //self.ctx.flot.checkMouseEvents();\n}\n\nself.onDestroy = function() {\n    //self.ctx.flot.destroy();\n}\n\nself.typeParameters = function() {\n    return {\n        hasAdditionalLatestDataKeys: true\n    };\n}\n",
      "settingsSchema" : "{}",
      "dataKeySettingsSchema" : "{}",
      "latestDataKeySettingsSchema" : "{}",
      "settingsDirective" : "tb-flot-line-widget-settings",
      "dataKeySettingsDirective" : "tb-flot-line-key-settings",
      "latestDataKeySettingsDirective" : "tb-flot-latest-key-settings",
      "defaultConfig" : "{\"showTitle\":true,\"backgroundColor\":\"#fff\",\"color\":\"rgba(0, 0, 0, 0.87)\",\"padding\":\"8px\",\"settings\":{\"shadowSize\":4,\"fontColor\":\"#545454\",\"fontSize\":10,\"xaxis\":{\"showLabels\":true,\"color\":\"#545454\"},\"yaxis\":{\"showLabels\":true,\"color\":\"#545454\"},\"grid\":{\"color\":\"#545454\",\"tickColor\":\"#DDDDDD\",\"verticalLines\":true,\"horizontalLines\":true,\"outlineWidth\":1},\"legend\":{\"show\":true,\"position\":\"nw\",\"backgroundColor\":\"#f0f0f0\",\"backgroundOpacity\":0.85,\"labelBoxBorderColor\":\"rgba(1, 1, 1, 0.45)\"},\"decimals\":1,\"stack\":false,\"tooltipIndividual\":false},\"title\":\"Demo for data download\",\"dropShadow\":true,\"enableFullscreen\":true,\"titleStyle\":{\"fontSize\":\"16px\",\"fontWeight\":400},\"mobileHeight\":null,\"datasources\":[],\"timewindow\":{\"realtime\":{\"timewindowMs\":60000}}}"
    },
    "externalId" : {
      "entityType" : "WIDGET_TYPE",
      "id" : "b4a2be30-9ef3-11ee-91a8-1b187c11acd1"
    },
    "id" : {
      "entityType" : "WIDGET_TYPE",
      "id" : "b4a2be30-9ef3-11ee-91a8-1b187c11acd1"
    },
    "tags" : null
  },
  "relations" : [ ],
  "attributes" : {
    "SERVER_SCOPE" : [ ]
  }
}