{
  "entityType" : "ENTITY_GROUP",
  "entity" : {
    "additionalInfo" : null,
    "configuration" : {
      "columns" : [ {
        "type" : "ENTITY_FIELD",
        "key" : "created_time",
        "sortOrder" : "DESC"
      }, {
        "type" : "ENTITY_FIELD",
        "key" : "name",
        "sortOrder" : "NONE"
      }, {
        "type" : "ENTITY_FIELD",
        "key" : "type",
        "sortOrder" : "NONE"
      } ],
      "settings" : { },
      "actions" : { }
    },
    "edgeGroupAll" : false,
    "externalId" : null,
    "groupAll" : true,
    "id" : {
      "entityType" : "ENTITY_GROUP",
      "id" : "993dd230-c499-11ee-a09b-6fe9f38618ff"
    },
    "name" : "All",
    "ownerId" : {
      "entityType" : "TENANT",
      "id" : "99391740-c499-11ee-a09b-6fe9f38618ff"
    },
    "type" : "ENTITY_VIEW"
  },
  "relations" : [ ],
  "attributes" : {
    "SERVER_SCOPE" : [ ]
  },
  "groupEntities" : true
}