{
  "entityType" : "DASHBOARD",
  "entity" : {
    "assignedCustomers" : [ ],
    "configuration" : {
      "description" : "",
      "widgets" : {
        "b8c9a76c-c97c-977b-c9e0-8c67f68edc9d" : {
          "typeFullFqn" : "tenant.block_widget_display_online",
          "type" : "latest",
          "sizeX" : 7.5,
          "sizeY" : 3,
          "config" : {
            "datasources" : [ {
              "type" : "device",
              "name" : "",
              "deviceId" : "464129d0-8e69-11ee-91a8-1b187c11acd1",
              "dataKeys" : [ {
                "name" : "Style",
                "type" : "attribute",
                "label" : "Style",
                "color" : "#2196f3",
                "settings" : { },
                "_hash" : 0.19367537858416717
              } ],
              "alarmFilterConfig" : {
                "statusList" : [ "ACTIVE" ]
              }
            } ],
            "timewindow" : {
              "displayValue" : "",
              "selectedTab" : 0,
              "realtime" : {
                "realtimeType" : 1,
                "interval" : 1000,
                "timewindowMs" : 60000,
                "quickInterval" : "CURRENT_DAY"
              },
              "history" : {
                "historyType" : 0,
                "interval" : 1000,
                "timewindowMs" : 60000,
                "fixedTimewindow" : {
                  "startTimeMs" : 1705991794483,
                  "endTimeMs" : 1706078194483
                },
                "quickInterval" : "CURRENT_DAY"
              },
              "aggregation" : {
                "type" : "AVG",
                "limit" : 25000
              }
            },
            "showTitle" : false,
            "backgroundColor" : "#fff",
            "color" : "rgba(0, 0, 0, 0.87)",
            "padding" : "0",
            "settings" : { },
            "title" : "Attributes card",
            "useDashboardTimewindow" : true,
            "displayTimewindow" : true,
            "dropShadow" : false,
            "enableFullscreen" : false,
            "widgetStyle" : { },
            "widgetCss" : "",
            "pageSize" : 1024,
            "noDataDisplayMessage" : ""
          },
          "row" : 0,
          "col" : 0,
          "id" : "b8c9a76c-c97c-977b-c9e0-8c67f68edc9d"
        }
      },
      "states" : {
        "default" : {
          "name" : "SigView",
          "root" : true,
          "layouts" : {
            "main" : {
              "widgets" : {
                "b8c9a76c-c97c-977b-c9e0-8c67f68edc9d" : {
                  "sizeX" : 9,
                  "sizeY" : 12,
                  "row" : 0,
                  "col" : 7
                }
              },
              "gridSettings" : {
                "backgroundColor" : "#eeeeee",
                "columns" : 24,
                "margin" : 10,
                "outerMargin" : true,
                "backgroundSizeMode" : "100%",
                "autoFillHeight" : true,
                "backgroundImageUrl" : null,
                "mobileAutoFillHeight" : false,
                "mobileRowHeight" : 70
              }
            }
          }
        }
      },
      "entityAliases" : {
        "1d618f80-30b1-0f06-a378-db2303283e5b" : {
          "id" : "1d618f80-30b1-0f06-a378-db2303283e5b",
          "alias" : "M6",
          "filter" : {
            "type" : "singleEntity",
            "resolveMultiple" : false,
            "singleEntity" : {
              "entityType" : "DEVICE",
              "id" : "99391740-c499-11ee-a09b-6fe9f38618ff"
            }
          }
        }
      },
      "filters" : { },
      "timewindow" : {
        "displayValue" : "",
        "hideInterval" : false,
        "hideLastInterval" : false,
        "hideQuickInterval" : false,
        "hideAggregation" : false,
        "hideAggInterval" : false,
        "hideTimezone" : false,
        "selectedTab" : 0,
        "realtime" : {
          "realtimeType" : 0,
          "interval" : 1000,
          "timewindowMs" : 60000,
          "quickInterval" : "CURRENT_DAY"
        },
        "history" : {
          "historyType" : 0,
          "interval" : 1000,
          "timewindowMs" : 60000,
          "fixedTimewindow" : {
            "startTimeMs" : 1699854564976,
            "endTimeMs" : 1699940964976
          },
          "quickInterval" : "CURRENT_DAY"
        },
        "aggregation" : {
          "type" : "AVG",
          "limit" : 25000
        }
      },
      "settings" : {
        "stateControllerId" : "entity",
        "showTitle" : false,
        "showDashboardsSelect" : true,
        "showEntitiesSelect" : true,
        "showDashboardTimewindow" : true,
        "showDashboardExport" : true,
        "toolbarAlwaysOpen" : true
      }
    },
    "customerId" : null,
    "externalId" : {
      "entityType" : "DASHBOARD",
      "id" : "910091e0-82b1-11ee-8e13-b117fbcde39a"
    },
    "id" : {
      "entityType" : "DASHBOARD",
      "id" : "910091e0-82b1-11ee-8e13-b117fbcde39a"
    },
    "image" : null,
    "mobileHide" : false,
    "mobileOrder" : null,
    "name" : "SigView",
    "ownerId" : null,
    "title" : "SigView"
  },
  "relations" : [ ],
  "attributes" : {
    "SERVER_SCOPE" : [ ]
  }
}