{
  "entityType" : "WIDGETS_BUNDLE",
  "entity" : {
    "alias" : "victor_s_widgets_bundle",
    "description" : null,
    "externalId" : {
      "entityType" : "WIDGETS_BUNDLE",
      "id" : "8dfdfac0-7798-11ed-a530-bd0ab2876327"
    },
    "id" : {
      "entityType" : "WIDGETS_BUNDLE",
      "id" : "8dfdfac0-7798-11ed-a530-bd0ab2876327"
    },
    "image" : null,
    "name" : "5giotlead Menu Widgets Bundle",
    "order" : null,
    "title" : "5giotlead Menu Widgets Bundle"
  },
  "fqns" : [ "victor_s_widgets_bundle.menu_list", "victor_s_widgets_bundle.menu_list2", "victor_s_widgets_bundle.dynamic_state_widget22", "victor_s_widgets_bundle.dynamic_state_widget2" ],
  "relations" : [ ],
  "attributes" : {
    "SERVER_SCOPE" : [ ]
  }
}